<?xml version="1.0" encoding="utf-8"?>
<COLLADA xmlns="http://www.collada.org/2005/11/COLLADASchema" version="1.4.1">
  <asset>
    <contributor>
      <author>Blender User</author>
      <authoring_tool>Blender 2.78.0 commit date:2017-02-24, commit time:14:33, hash:e92f235283</authoring_tool>
    </contributor>
    <created>2017-04-29T15:47:45</created>
    <modified>2017-04-29T15:47:45</modified>
    <unit name="meter" meter="1"/>
    <up_axis>Z_UP</up_axis>
  </asset>
  <library_cameras>
    <camera id="Camera-camera" name="Camera">
      <optics>
        <technique_common>
          <perspective>
            <xfov sid="xfov">49.13434</xfov>
            <aspect_ratio>1.777778</aspect_ratio>
            <znear sid="znear">0.1</znear>
            <zfar sid="zfar">100</zfar>
          </perspective>
        </technique_common>
      </optics>
      <extra>
        <technique profile="blender">
          <YF_dofdist>0</YF_dofdist>
          <shiftx>0</shiftx>
          <shifty>0</shifty>
        </technique>
      </extra>
    </camera>
  </library_cameras>
  <library_lights>
    <light id="Lamp-light" name="Lamp">
      <technique_common>
        <point>
          <color sid="color">1 1 1</color>
          <constant_attenuation>1</constant_attenuation>
          <linear_attenuation>0</linear_attenuation>
          <quadratic_attenuation>0.00111109</quadratic_attenuation>
        </point>
      </technique_common>
      <extra>
        <technique profile="blender">
          <adapt_thresh>0.000999987</adapt_thresh>
          <area_shape>1</area_shape>
          <area_size>0.563</area_size>
          <area_sizey>0.1</area_sizey>
          <area_sizez>1</area_sizez>
          <atm_distance_factor>1</atm_distance_factor>
          <atm_extinction_factor>1</atm_extinction_factor>
          <atm_turbidity>2</atm_turbidity>
          <att1>0</att1>
          <att2>1</att2>
          <backscattered_light>1</backscattered_light>
          <bias>1</bias>
          <blue>1</blue>
          <buffers>1</buffers>
          <bufflag>0</bufflag>
          <bufsize>2880</bufsize>
          <buftype>2</buftype>
          <clipend>30.002</clipend>
          <clipsta>1.000799</clipsta>
          <compressthresh>0.04999995</compressthresh>
          <dist sid="blender_dist">29.99998</dist>
          <energy sid="blender_energy">1</energy>
          <falloff_type>2</falloff_type>
          <filtertype>0</filtertype>
          <flag>0</flag>
          <gamma sid="blender_gamma">1</gamma>
          <green>1</green>
          <halo_intensity sid="blnder_halo_intensity">1</halo_intensity>
          <horizon_brightness>1</horizon_brightness>
          <mode>8192</mode>
          <ray_samp>1</ray_samp>
          <ray_samp_method>1</ray_samp_method>
          <ray_samp_type>0</ray_samp_type>
          <ray_sampy>1</ray_sampy>
          <ray_sampz>1</ray_sampz>
          <red>1</red>
          <samp>3</samp>
          <shadhalostep>0</shadhalostep>
          <shadow_b sid="blender_shadow_b">0</shadow_b>
          <shadow_g sid="blender_shadow_g">0</shadow_g>
          <shadow_r sid="blender_shadow_r">0</shadow_r>
          <sky_colorspace>0</sky_colorspace>
          <sky_exposure>1</sky_exposure>
          <skyblendfac>1</skyblendfac>
          <skyblendtype>1</skyblendtype>
          <soft>3</soft>
          <spotblend>0.15</spotblend>
          <spotsize>75</spotsize>
          <spread>1</spread>
          <sun_brightness>1</sun_brightness>
          <sun_effect_type>0</sun_effect_type>
          <sun_intensity>1</sun_intensity>
          <sun_size>1</sun_size>
          <type>4</type>
        </technique>
      </extra>
    </light>
  </library_lights>
  <library_images/>
  <library_effects>
    <effect id="Material-effect">
      <profile_COMMON>
        <technique sid="common">
          <phong>
            <emission>
              <color sid="emission">0 0 0 1</color>
            </emission>
            <ambient>
              <color sid="ambient">0 0 0 1</color>
            </ambient>
            <diffuse>
              <color sid="diffuse">0.64 0.64 0.64 1</color>
            </diffuse>
            <specular>
              <color sid="specular">0.5 0.5 0.5 1</color>
            </specular>
            <shininess>
              <float sid="shininess">50</float>
            </shininess>
            <index_of_refraction>
              <float sid="index_of_refraction">1</float>
            </index_of_refraction>
          </phong>
        </technique>
      </profile_COMMON>
    </effect>
  </library_effects>
  <library_materials>
    <material id="Material-material" name="Material">
      <instance_effect url="#Material-effect"/>
    </material>
  </library_materials>
  <library_geometries>
    <geometry id="Cube-mesh" name="Cube">
      <mesh>
        <source id="Cube-mesh-positions">
          <float_array id="Cube-mesh-positions-array" count="120">2.5 0.4624627 0.02085578 2.479 0.479 -1.44163e-4 2.479 0.4890117 0.01775145 2.5 -0.4624629 0.02085578 2.479 -0.4890117 0.01775151 2.479 -0.479 -1.44175e-4 -2.479 -0.4890116 0.01775151 -2.5 -0.4624627 0.02085578 -2.479 -0.4789999 -1.44175e-4 -2.479 0.4890118 0.01775145 -2.479 0.4790001 -1.44163e-4 -2.5 0.4624629 0.02085578 2.479 0.1930735 0.4997195 2.479 0.1820852 0.5386152 2.5 0.1610851 0.5386152 2.5 0.1703368 0.4966152 2.479 -0.1930739 0.4997195 2.5 -0.1703372 0.4966152 2.5 -0.1610856 0.5386152 2.479 -0.1820856 0.5386152 -2.5 -0.170337 0.4966152 -2.479 -0.1930736 0.4997195 -2.479 -0.1820853 0.5386152 -2.5 -0.1610854 0.5386152 -2.5 0.1703369 0.4966152 -2.5 0.1610853 0.5386152 -2.479 0.1820852 0.5386152 -2.479 0.1930736 0.4997195 2.5 0.1610851 0.8143771 2.479 0.1820852 0.8143771 2.479 0.1610851 0.8353771 2.5 -0.1610856 0.8143771 2.479 -0.1610856 0.8353771 2.479 -0.1820855 0.8143771 -2.479 0.1820852 0.8143771 -2.5 0.1610853 0.8143771 -2.479 0.1610853 0.8353771 -2.479 -0.1820853 0.8143771 -2.479 -0.1610853 0.8353771 -2.5 -0.1610853 0.8143771</float_array>
          <technique_common>
            <accessor source="#Cube-mesh-positions-array" count="40" stride="3">
              <param name="X" type="float"/>
              <param name="Y" type="float"/>
              <param name="Z" type="float"/>
            </accessor>
          </technique_common>
        </source>
        <source id="Cube-mesh-normals">
          <float_array id="Cube-mesh-normals-array" count="228">0 0.8521769 0.523254 -1 0 0 0 -0.8521771 0.5232535 -1 0 -3.42856e-7 0 1 0 1 2.11644e-7 -5.01133e-7 0 -1 0 0 0 1 1 -1.34181e-6 0 0.7616726 0.5654842 -0.3163583 0.7616727 -0.5654841 -0.3163583 -0.7616734 -0.5654833 -0.3163579 -0.7616722 0.5654845 -0.3163586 0.7344217 0.6531295 0.1845169 0.7344212 -0.6531306 0.1845155 -0.6986764 -0.6986882 0.1539037 -0.734421 0.6531311 0.1845145 0.5773511 0.5773511 0.5773487 0.5773521 -0.5773423 0.5773564 -0.5773511 0.5773511 0.5773487 -0.5773491 -0.5773491 0.5773528 0.7071078 0 -0.7071058 0 0.8727122 -0.4882352 0.7071101 0.6025761 0.3699965 0 -0.8727129 -0.4882339 0.7071064 -0.6025813 0.3699952 -0.7071082 -2.71663e-7 -0.7071055 -0.7071087 -0.6025789 0.3699946 -0.707113 0.602572 0.3699975 1 -1.04144e-6 -3.08321e-7 0 0.9623349 0.2718666 0 -0.9623352 0.2718659 -1 1.10124e-6 -1.63013e-7 0.7071093 0 0.7071043 0 0.7071073 0.7071063 0 -0.7071073 0.7071063 -0.7071054 0 0.7071082 0.7071026 -0.707111 0 -0.7071026 -0.707111 0 0.7071099 0.7071036 6.28228e-7 -0.7071099 0.7071037 0 0 0 -1 0 0.852177 0.5232539 -1 1.34181e-6 0 0 -0.852177 0.5232536 -1 0 -9.30851e-7 0 1 -1.74381e-7 1 0 1.36057e-6 0 -1 0 0 0 1 1 0 8.64582e-7 0.698676 0.6986885 0.1539037 0.6986764 -0.6986882 0.1539037 -0.7344212 -0.6531306 0.1845155 -0.6986815 0.698683 0.1539037 0.7071083 0 -0.7071053 0 0.8727122 -0.4882351 0.7070999 0.6025886 0.3699957 0 -0.8727129 -0.4882339 0.7070978 -0.602592 0.3699942 -0.7071079 2.71238e-7 -0.7071057 -0.7071066 -0.6025791 0.3699984 -0.7071022 0.6025878 0.3699926 1 -1.10124e-6 3.26026e-7 0 0.9623346 0.2718677 0 -0.9623349 0.271867 -1 0 1.5416e-7 0.7071053 -2.33609e-6 0.7071084 0 0.7071073 0.7071063 0 -0.7071073 0.7071063 -0.7071094 0 0.7071042 0.7071025 -0.707111 0 -0.7071098 -0.7071037 0 0.7071099 0.7071037 0 -0.7071099 0.7071036 0 0 0 -1</float_array>
          <technique_common>
            <accessor source="#Cube-mesh-normals-array" count="76" stride="3">
              <param name="X" type="float"/>
              <param name="Y" type="float"/>
              <param name="Z" type="float"/>
            </accessor>
          </technique_common>
        </source>
        <source id="Cube-mesh-map-0">
          <float_array id="Cube-mesh-map-0-array" count="456">0.4695202 0.004199981 0.3378328 0.9957999 0.3378326 0.004199981 0.8539904 0.3256241 0.7820597 0.2611899 0.8539904 0.2611899 0.5619003 0.9958 0.6935879 0.004199981 0.693588 0.9958001 0.9890445 0.3858995 0.8649458 0.2593396 0.9890446 0.2009144 0.3274844 0.9957999 0.2558013 0.004199981 0.3274841 0.004199981 0.8704236 0.1318697 0.9945223 0.00530976 0.9945223 0.1902948 0.5515519 0.9958 0.479869 0.004199981 0.5515518 0.004199981 0.7820597 0.9915999 0.6980233 0 0.7820594 0 0.8594682 0.1300193 0.7875375 0.06558519 0.8594682 0.06558519 0.9945223 0.1902948 1 0.1936023 0.995332 0.1956046 0.9945223 0.00530976 0.995332 0 1 0.002002298 0.9898543 0.3912093 0.9890445 0.3858995 0.9945222 0.389207 0.9898543 0.1956046 0.9945222 0.1976069 0.9890446 0.2009144 0.8594682 0.1342193 0.8704236 0.1318697 0.8696138 0.136417 0.8704236 0.06373488 0.8594681 0.06138521 0.8696138 0.05918753 0.8649459 0.3274744 0.8539904 0.329824 0.8539904 0.3256241 0.8649458 0.2593396 0.8539904 0.2569899 0.8641361 0.2547923 0.2553469 0 0.2558013 0.004199981 0.2498881 0.004199981 0.4794147 1 0.4739559 0.9958 0.4798691 0.9958 0.2558015 0.9957999 0.2553471 0.9999999 0.2498883 0.9957999 0.479869 0.004199981 0.4739558 0.004199981 0.4794146 0 0.9945223 0.1902948 1 0.002002298 1 0.1936023 0.4739558 0.9957999 0.4695202 0.004199981 0.4739555 0.004199981 0.8696138 0.136417 0.9945223 0.1902948 0.995332 0.1956046 0.6935879 0.004199981 0.6980233 0.9958001 0.693588 0.9958001 0.9945223 0.00530976 0.8696138 0.05918753 0.995332 0 0.9890445 0.3858995 0.9945222 0.1976069 0.9945222 0.389207 0.8641361 0.3320217 0.9890445 0.3858995 0.9898543 0.3912093 0.9890446 0.2009144 0.8641361 0.2547923 0.9898543 0.1956046 0.8594682 0.1300193 0.8704236 0.06373488 0.8704236 0.1318697 0.3378328 0.9957999 0.3274841 0.004199981 0.3378326 0.004199981 0.5515518 0.004199981 0.5619003 0.9958 0.5515519 0.9958 0.8539904 0.2611899 0.8649459 0.3274744 0.8539904 0.3256241 0.7820598 0.1300193 0.7875375 0.06558519 0.7875375 0.1300193 0.2558015 0.9957999 0.2498881 0.004199981 0.2558013 0.004199981 0.4739558 0.004199981 0.4798691 0.9958 0.4739559 0.9958 0.6980236 0.9915999 0.7820597 0.9957999 0.6980236 0.9958 0.7875375 0.06558519 0.8594681 0.06138521 0.8594682 0.06558519 0.8539904 0.3256241 0.7820598 0.329824 0.7820597 0.3256241 0.8594682 0.1342193 0.7875375 0.1300193 0.8594682 0.1300193 0.8539904 0.2569899 0.7820597 0.2611899 0.7820597 0.2569899 0.2498881 0 0 0.9915999 0 0 0.4695202 0.004199981 0.4695205 0.9957999 0.3378328 0.9957999 0.8539904 0.3256241 0.7820597 0.3256241 0.7820597 0.2611899 0.5619003 0.9958 0.5619003 0.004199981 0.6935879 0.004199981 0.9890445 0.3858995 0.8649459 0.3274744 0.8649458 0.2593396 0.3274844 0.9957999 0.2558015 0.9957999 0.2558013 0.004199981 0.8704236 0.1318697 0.8704236 0.06373488 0.9945223 0.00530976 0.5515519 0.9958 0.4798691 0.9958 0.479869 0.004199981 0.7820597 0.9915999 0.6980236 0.9915999 0.6980233 0 0.8594682 0.1300193 0.7875375 0.1300193 0.7875375 0.06558519 0.8594682 0.1342193 0.8594682 0.1300193 0.8704236 0.1318697 0.8704236 0.06373488 0.8594682 0.06558519 0.8594681 0.06138521 0.8649459 0.3274744 0.8641361 0.3320217 0.8539904 0.329824 0.8649458 0.2593396 0.8539904 0.2611899 0.8539904 0.2569899 0.9945223 0.1902948 0.9945223 0.00530976 1 0.002002298 0.4739558 0.9957999 0.4695205 0.9957999 0.4695202 0.004199981 0.8696138 0.136417 0.8704236 0.1318697 0.9945223 0.1902948 0.6935879 0.004199981 0.6980232 0.004199981 0.6980233 0.9958001 0.9945223 0.00530976 0.8704236 0.06373488 0.8696138 0.05918753 0.9890445 0.3858995 0.9890446 0.2009144 0.9945222 0.1976069 0.8641361 0.3320217 0.8649459 0.3274744 0.9890445 0.3858995 0.9890446 0.2009144 0.8649458 0.2593396 0.8641361 0.2547923 0.8594682 0.1300193 0.8594682 0.06558519 0.8704236 0.06373488 0.3378328 0.9957999 0.3274844 0.9957999 0.3274841 0.004199981 0.5515518 0.004199981 0.5619003 0.004199981 0.5619003 0.9958 0.8539904 0.2611899 0.8649458 0.2593396 0.8649459 0.3274744 0.7820598 0.1300193 0.7820597 0.06558519 0.7875375 0.06558519 0.2558015 0.9957999 0.2498883 0.9957999 0.2498881 0.004199981 0.4739558 0.004199981 0.479869 0.004199981 0.4798691 0.9958 0.6980236 0.9915999 0.7820597 0.9915999 0.7820597 0.9957999 0.7875375 0.06558519 0.7875375 0.06138521 0.8594681 0.06138521 0.8539904 0.3256241 0.8539904 0.329824 0.7820598 0.329824 0.8594682 0.1342193 0.7875375 0.1342193 0.7875375 0.1300193 0.8539904 0.2569899 0.8539904 0.2611899 0.7820597 0.2611899 0.2498881 0 0.249888 0.9915999 0 0.9915999</float_array>
          <technique_common>
            <accessor source="#Cube-mesh-map-0-array" count="228" stride="2">
              <param name="S" type="float"/>
              <param name="T" type="float"/>
            </accessor>
          </technique_common>
        </source>
        <vertices id="Cube-mesh-vertices">
          <input semantic="POSITION" source="#Cube-mesh-positions"/>
        </vertices>
        <polylist material="Material-material" count="76">
          <input semantic="VERTEX" source="#Cube-mesh-vertices" offset="0"/>
          <input semantic="NORMAL" source="#Cube-mesh-normals" offset="1"/>
          <input semantic="TEXCOORD" source="#Cube-mesh-map-0" offset="2" set="0"/>
          <vcount>3 3 3 3 3 3 3 3 3 3 3 3 3 3 3 3 3 3 3 3 3 3 3 3 3 3 3 3 3 3 3 3 3 3 3 3 3 3 3 3 3 3 3 3 3 3 3 3 3 3 3 3 3 3 3 3 3 3 3 3 3 3 3 3 3 3 3 3 3 3 3 3 3 3 3 3 </vcount>
          <p>2 0 0 27 0 1 12 0 2 23 1 3 35 1 4 25 1 5 16 2 6 6 2 7 4 2 8 7 3 9 24 3 10 11 3 11 26 4 12 29 4 13 13 4 14 15 5 15 3 5 16 0 5 17 19 6 18 37 6 19 22 6 20 36 7 21 32 7 22 30 7 23 14 8 24 31 8 25 18 8 26 0 9 27 1 9 28 2 9 29 3 10 30 4 10 31 5 10 32 6 11 33 7 11 34 8 11 35 9 12 36 10 12 37 11 12 38 13 13 39 15 13 40 12 13 41 17 14 42 19 14 43 16 14 44 20 15 45 22 15 46 23 15 47 24 16 48 26 16 49 27 16 50 28 17 51 29 17 52 30 17 53 31 18 54 32 18 55 33 18 56 34 19 57 35 19 58 36 19 59 37 20 60 38 20 61 39 20 62 0 21 63 5 21 64 1 21 65 10 22 66 2 22 67 1 22 68 12 23 69 0 23 70 2 23 71 6 24 72 5 24 73 4 24 74 3 25 75 16 25 76 4 25 77 7 26 78 10 26 79 8 26 80 21 27 81 7 27 82 6 27 83 11 28 84 27 28 85 9 28 86 14 29 87 17 29 88 15 29 89 27 30 90 13 30 91 12 30 92 22 31 93 16 31 94 19 31 95 25 32 96 20 32 97 23 32 98 30 33 99 31 33 100 28 33 101 34 34 102 30 34 103 29 34 104 38 35 105 33 35 106 32 35 107 38 36 108 35 36 109 39 36 110 31 37 111 19 37 112 18 37 113 23 38 114 37 38 115 39 38 116 13 39 117 28 39 118 14 39 119 26 40 120 35 40 121 34 40 122 5 41 123 10 41 124 1 41 125 2 42 126 9 42 127 27 42 128 23 43 129 39 43 130 35 43 131 16 44 132 21 44 133 6 44 134 7 45 135 20 45 136 24 45 137 26 46 138 34 46 139 29 46 140 15 47 141 17 47 142 3 47 143 19 48 144 33 48 145 37 48 146 36 49 147 38 49 148 32 49 149 14 50 150 28 50 151 31 50 152 13 51 153 14 51 154 15 51 155 17 52 156 18 52 157 19 52 158 20 53 159 21 53 160 22 53 161 24 54 162 25 54 163 26 54 164 0 55 165 3 55 166 5 55 167 10 56 168 9 56 169 2 56 170 12 57 171 15 57 172 0 57 173 6 58 174 8 58 175 5 58 176 3 59 177 17 59 178 16 59 179 7 60 180 11 60 181 10 60 182 21 61 183 20 61 184 7 61 185 11 62 186 24 62 187 27 62 188 14 63 189 18 63 190 17 63 191 27 64 192 26 64 193 13 64 194 22 65 195 21 65 196 16 65 197 25 66 198 24 66 199 20 66 200 30 67 201 32 67 202 31 67 203 34 68 204 36 68 205 30 68 206 38 69 207 37 69 208 33 69 209 38 70 210 36 70 211 35 70 212 31 71 213 33 71 214 19 71 215 23 72 216 22 72 217 37 72 218 13 73 219 29 73 220 28 73 221 26 74 222 25 74 223 35 74 224 5 75 225 8 75 226 10 75 227</p>
        </polylist>
      </mesh>
    </geometry>
    <geometry id="Circle_001-mesh" name="Circle.001">
      <mesh>
        <source id="Circle_001-mesh-positions">
          <float_array id="Circle_001-mesh-positions-array" count="0"/>
          <technique_common>
            <accessor source="#Circle_001-mesh-positions-array" count="0" stride="3">
              <param name="X" type="float"/>
              <param name="Y" type="float"/>
              <param name="Z" type="float"/>
            </accessor>
          </technique_common>
        </source>
        <source id="Circle_001-mesh-normals">
          <float_array id="Circle_001-mesh-normals-array" count="0"/>
          <technique_common>
            <accessor source="#Circle_001-mesh-normals-array" count="0" stride="3">
              <param name="X" type="float"/>
              <param name="Y" type="float"/>
              <param name="Z" type="float"/>
            </accessor>
          </technique_common>
        </source>
        <vertices id="Circle_001-mesh-vertices">
          <input semantic="POSITION" source="#Circle_001-mesh-positions"/>
        </vertices>
      </mesh>
    </geometry>
  </library_geometries>
  <library_controllers/>
  <library_visual_scenes>
    <visual_scene id="Scene" name="Scene">
      <node id="Camera" name="Camera" type="NODE">
        <matrix sid="transform">0.6859207 -0.3240135 0.6515582 7.481132 0.7276763 0.3054208 -0.6141704 -6.50764 0 0.8953956 0.4452714 5.343665 0 0 0 1</matrix>
        <instance_camera url="#Camera-camera"/>
      </node>
      <node id="Lamp" name="Lamp" type="NODE">
        <matrix sid="transform">-0.2908646 -0.7711008 0.5663932 4.076245 0.9551712 -0.1998834 0.2183912 1.005454 -0.05518906 0.6045247 0.7946723 5.903862 0 0 0 1</matrix>
        <instance_light url="#Lamp-light"/>
      </node>
      <node id="Cube" name="Cube" type="NODE">
        <matrix sid="transform">1 0 0 -3.72529e-9 0 1 0 0 0 0 1 0 0 0 0 1</matrix>
        <instance_geometry url="#Cube-mesh" name="Cube">
          <bind_material>
            <technique_common>
              <instance_material symbol="Material-material" target="#Material-material"/>
            </technique_common>
          </bind_material>
        </instance_geometry>
      </node>
      <node id="Circle" name="Circle" type="NODE">
        <matrix sid="transform">1 0 0 -1.265793 0 1 0 0 0 0 1 0 0 0 0 1</matrix>
        <instance_geometry url="#Circle_001-mesh" name="Circle"/>
      </node>
    </visual_scene>
  </library_visual_scenes>
  <scene>
    <instance_visual_scene url="#Scene"/>
  </scene>
</COLLADA>